{
  "project_info": {
    "project_number": "35174186331",
    "firebase_url": "https://upspeak-staging.firebaseio.com",
    "project_id": "upspeak-staging",
    "storage_bucket": "upspeak-staging.appspot.com"
  },
  "client": [
    {
      "client_info": {
        "mobilesdk_app_id": "1:35174186331:android:ddcc1d8b908f403a",
        "android_client_info": {
          "package_name": "com.voctag.android.staging"
        }
      },
      "oauth_client": [
        {
          "client_id": "35174186331-f10fmhn4j9jn1783537c8sr1m9a4bl4t.apps.googleusercontent.com",
          "client_type": 3
        }
      ],
      "api_key": [
        {
          "current_key": "AIzaSyBYjRb_ZaTNzX7IPCqrhdXbqnPPMLqxX3o"
        }
      ],
      "services": {
        "appinvite_service": {
          "other_platform_oauth_client": [
            {
              "client_id": "35174186331-f10fmhn4j9jn1783537c8sr1m9a4bl4t.apps.googleusercontent.com",
              "client_type": 3
            }
          ]
        }
      }
    }
  ],
  "configuration_version": "1"
}